EESchema Schematic File Version 4
EELAYER 30 0
EELAYER END
$Descr A4 11693 8268
encoding utf-8
Sheet 1 3
Title ""
Date ""
Rev ""
Comp ""
Comment1 ""
Comment2 ""
Comment3 ""
Comment4 ""
$EndDescr
$Comp
L Switch:SW_Rotary4x3 SW1
U 1 1 5F940F98
P 4700 3450
F 0 "SW1" H 4750 4340 50  0000 C CNN
F 1 "SW_Rotary4x3" H 4750 4249 50  0000 C CNN
F 2 "Connector_PinHeader_2.54mm:PinHeader_1x16_P2.54mm_Vertical" H 4600 4350 50  0001 C CNN
F 3 "http://cdn-reichelt.de/documents/datenblatt/C200/DS-Serie%23LOR.pdf" H 4600 4350 50  0001 C CNN
	1    4700 3450
	-1   0    0    -1  
$EndComp
$Comp
L Connector:6P6C J3
U 1 1 5F947F2A
P 1200 6300
F 0 "J3" H 1257 6867 50  0000 C CNN
F 1 "6P6C" H 1257 6776 50  0000 C CNN
F 2 "Connector_RJ:RJ25_Wayconn_MJEA-660X1_Horizontal" V 1200 6325 50  0001 C CNN
F 3 "~" V 1200 6325 50  0001 C CNN
	1    1200 6300
	1    0    0    -1  
$EndComp
Wire Wire Line
	3800 2850 4200 2850
Wire Wire Line
	3900 3250 4200 3250
Wire Wire Line
	3900 3250 3900 6300
Wire Wire Line
	4000 6500 4000 3650
Wire Wire Line
	4000 3650 4200 3650
Wire Wire Line
	4200 4050 4100 4050
Wire Wire Line
	4100 4050 4100 6400
$Sheet
S 6000 2600 1500 900 
U 5F9A39A0
F0 "Phone" 50
F1 "Phone.sch" 50
F2 "mic_in" I R 7500 3200 50 
F3 "spk_out" O R 7500 3100 50 
F4 "mic_out" O L 6000 2850 50 
F5 "spk_in" I L 6000 3250 50 
$EndSheet
$Comp
L Connector:4P4C J2
U 1 1 5F9B9FED
P 8550 3000
AR Path="/5F9B9FED" Ref="J2"  Part="1" 
AR Path="/5F9A39A0/5F9B9FED" Ref="J?"  Part="1" 
F 0 "J2" H 8220 3004 50  0000 R CNN
F 1 "4P4C" H 8220 3095 50  0000 R CNN
F 2 "4P4C:215875-1" V 8550 3050 50  0001 C CNN
F 3 "~" V 8550 3050 50  0001 C CNN
	1    8550 3000
	-1   0    0    1   
$EndComp
Wire Wire Line
	5100 2850 6000 2850
Wire Wire Line
	5100 3250 6000 3250
$Sheet
S 6300 4500 800  500 
U 5F9CB163
F0 "Ringer" 50
F1 "Ringer.sch" 50
F2 "bell_in" I L 6300 4750 50 
$EndSheet
Wire Wire Line
	5100 3650 5600 3650
Wire Wire Line
	5600 3650 5600 4200
Wire Wire Line
	5600 4750 5750 4750
Wire Wire Line
	5300 4050 5100 4050
$Comp
L power:+24V #PWR07
U 1 1 5F9D53A2
P 7500 5300
F 0 "#PWR07" H 7500 5150 50  0001 C CNN
F 1 "+24V" H 7515 5473 50  0000 C CNN
F 2 "" H 7500 5300 50  0001 C CNN
F 3 "" H 7500 5300 50  0001 C CNN
	1    7500 5300
	1    0    0    -1  
$EndComp
Wire Wire Line
	6900 5500 7500 5500
Wire Wire Line
	7500 5500 7500 5300
Wire Wire Line
	6500 5500 5300 5500
Wire Wire Line
	5300 4050 5300 5500
$Comp
L Device:R R1
U 1 1 5F9DD7A6
P 6450 4200
F 0 "R1" V 6243 4200 50  0000 C CNN
F 1 "2.7k" V 6334 4200 50  0000 C CNN
F 2 "Resistor_THT:R_Axial_DIN0207_L6.3mm_D2.5mm_P10.16mm_Horizontal" V 6380 4200 50  0001 C CNN
F 3 "~" H 6450 4200 50  0001 C CNN
	1    6450 4200
	0    1    1    0   
$EndComp
Wire Wire Line
	6300 4200 5600 4200
Connection ~ 5600 4200
$Comp
L Device:LED D1
U 1 1 5F9E27B0
P 6950 4200
F 0 "D1" H 6943 3945 50  0000 C CNN
F 1 "red" H 6943 4036 50  0000 C CNN
F 2 "Connector_PinHeader_2.54mm:PinHeader_1x02_P2.54mm_Vertical" H 6950 4200 50  0001 C CNN
F 3 "~" H 6950 4200 50  0001 C CNN
	1    6950 4200
	-1   0    0    1   
$EndComp
Wire Wire Line
	6600 4200 6800 4200
$Comp
L power:GND #PWR05
U 1 1 5F9E3EC3
P 7500 4400
F 0 "#PWR05" H 7500 4150 50  0001 C CNN
F 1 "GND" H 7505 4227 50  0000 C CNN
F 2 "" H 7500 4400 50  0001 C CNN
F 3 "" H 7500 4400 50  0001 C CNN
	1    7500 4400
	1    0    0    -1  
$EndComp
Wire Wire Line
	7100 4200 7500 4200
Wire Wire Line
	7500 4200 7500 4400
Wire Wire Line
	8150 3000 8050 3000
Wire Wire Line
	8050 3000 8050 2900
Wire Wire Line
	8050 2900 8150 2900
Connection ~ 8050 2900
Wire Wire Line
	8050 2600 8050 2900
$Comp
L power:+24V #PWR02
U 1 1 5F9F0B62
P 8050 2600
F 0 "#PWR02" H 8050 2450 50  0001 C CNN
F 1 "+24V" H 8065 2773 50  0000 C CNN
F 2 "" H 8050 2600 50  0001 C CNN
F 3 "" H 8050 2600 50  0001 C CNN
	1    8050 2600
	1    0    0    -1  
$EndComp
Wire Wire Line
	7500 3100 8150 3100
Wire Wire Line
	7500 3200 8150 3200
$Comp
L Switch:SW_Push SW3
U 1 1 5F9FD4E6
P 6700 5500
F 0 "SW3" H 6700 5785 50  0000 C CNN
F 1 "ring" H 6700 5694 50  0000 C CNN
F 2 "Connector_PinHeader_2.54mm:PinHeader_1x02_P2.54mm_Vertical" H 6700 5700 50  0001 C CNN
F 3 "~" H 6700 5700 50  0001 C CNN
	1    6700 5500
	1    0    0    -1  
$EndComp
$Comp
L Switch:SW_SPST SW2
U 1 1 5FA0169A
P 5950 4750
F 0 "SW2" H 5950 4985 50  0000 C CNN
F 1 "mute" H 5950 4894 50  0000 C CNN
F 2 "Connector_PinHeader_2.54mm:PinHeader_1x02_P2.54mm_Vertical" H 5950 4750 50  0001 C CNN
F 3 "~" H 5950 4750 50  0001 C CNN
	1    5950 4750
	1    0    0    -1  
$EndComp
Wire Wire Line
	6150 4750 6300 4750
Wire Wire Line
	5600 4200 5600 4750
Wire Wire Line
	2950 3950 4200 3950
Wire Wire Line
	2950 3150 2950 3950
Wire Wire Line
	3150 3550 4200 3550
Wire Wire Line
	3350 3150 4200 3150
Wire Wire Line
	2250 6300 2250 6200
Wire Wire Line
	2250 5800 2250 5900
Wire Wire Line
	2250 5400 2250 5500
$Comp
L Device:D_Zener D3
U 1 1 5FC04CA1
P 2250 6050
AR Path="/5FC04CA1" Ref="D3"  Part="1" 
AR Path="/5F9A39A0/5FC04CA1" Ref="D?"  Part="1" 
F 0 "D3" V 2296 5970 50  0000 R CNN
F 1 "5.6V" V 2205 5970 50  0000 R CNN
F 2 "Diode_THT:D_DO-35_SOD27_P7.62mm_Horizontal" H 2250 6050 50  0001 C CNN
F 3 "~" H 2250 6050 50  0001 C CNN
	1    2250 6050
	0    -1   -1   0   
$EndComp
$Comp
L Device:D_Zener D2
U 1 1 5FC04CA7
P 2250 5650
AR Path="/5FC04CA7" Ref="D2"  Part="1" 
AR Path="/5F9A39A0/5FC04CA7" Ref="D?"  Part="1" 
F 0 "D2" V 2204 5730 50  0000 L CNN
F 1 "5.6V" V 2295 5730 50  0000 L CNN
F 2 "Diode_THT:D_DO-35_SOD27_P7.62mm_Horizontal" H 2250 5650 50  0001 C CNN
F 3 "~" H 2250 5650 50  0001 C CNN
	1    2250 5650
	0    1    1    0   
$EndComp
$Comp
L Device:R R5
U 1 1 5FC1C929
P 3050 4900
F 0 "R5" V 2843 4900 50  0000 C CNN
F 1 "976" V 2934 4900 50  0000 C CNN
F 2 "Resistor_THT:R_Axial_DIN0207_L6.3mm_D2.5mm_P10.16mm_Horizontal" V 2980 4900 50  0001 C CNN
F 3 "~" H 3050 4900 50  0001 C CNN
	1    3050 4900
	0    1    1    0   
$EndComp
$Comp
L Device:R R4
U 1 1 5FC24163
P 3400 4650
F 0 "R4" H 3330 4604 50  0000 R CNN
F 1 "806" H 3330 4695 50  0000 R CNN
F 2 "Resistor_THT:R_Axial_DIN0207_L6.3mm_D2.5mm_P10.16mm_Horizontal" V 3330 4650 50  0001 C CNN
F 3 "~" H 3400 4650 50  0001 C CNN
	1    3400 4650
	-1   0    0    1   
$EndComp
$Comp
L Device:R R3
U 1 1 5FC24696
P 2700 4650
F 0 "R3" H 2630 4604 50  0000 R CNN
F 1 "806" H 2630 4695 50  0000 R CNN
F 2 "Resistor_THT:R_Axial_DIN0207_L6.3mm_D2.5mm_P10.16mm_Horizontal" V 2630 4650 50  0001 C CNN
F 3 "~" H 2700 4650 50  0001 C CNN
	1    2700 4650
	-1   0    0    1   
$EndComp
Wire Wire Line
	2700 4800 2700 4900
Wire Wire Line
	2700 4900 2900 4900
Wire Wire Line
	3200 4900 3400 4900
Wire Wire Line
	3400 4900 3400 4800
Wire Wire Line
	3400 4900 3800 4900
Wire Wire Line
	3800 2850 3800 4900
Connection ~ 3400 4900
$Comp
L power:+24V #PWR04
U 1 1 5FC2F3E8
P 3400 4300
F 0 "#PWR04" H 3400 4150 50  0001 C CNN
F 1 "+24V" H 3415 4473 50  0000 C CNN
F 2 "" H 3400 4300 50  0001 C CNN
F 3 "" H 3400 4300 50  0001 C CNN
	1    3400 4300
	1    0    0    -1  
$EndComp
Wire Wire Line
	3400 4300 3400 4400
Wire Wire Line
	2700 4400 2700 4500
Text Notes 3000 4600 0    50   ~ 0
-1.9Np
Wire Wire Line
	1600 6000 1700 6000
$Comp
L Device:R R8
U 1 1 5FC406E6
P 3400 5850
F 0 "R8" H 3330 5804 50  0000 R CNN
F 1 "1.2k" H 3330 5895 50  0000 R CNN
F 2 "Resistor_THT:R_Axial_DIN0207_L6.3mm_D2.5mm_P10.16mm_Horizontal" V 3330 5850 50  0001 C CNN
F 3 "~" H 3400 5850 50  0001 C CNN
	1    3400 5850
	-1   0    0    1   
$EndComp
$Comp
L Device:R R7
U 1 1 5FC406F0
P 2700 5850
F 0 "R7" H 2630 5804 50  0000 R CNN
F 1 "1.2k" H 2630 5895 50  0000 R CNN
F 2 "Resistor_THT:R_Axial_DIN0207_L6.3mm_D2.5mm_P10.16mm_Horizontal" V 2630 5850 50  0001 C CNN
F 3 "~" H 2700 5850 50  0001 C CNN
	1    2700 5850
	-1   0    0    1   
$EndComp
Wire Wire Line
	2700 6000 2700 6300
Wire Wire Line
	2700 6300 2900 6300
Wire Wire Line
	3200 6300 3400 6300
Wire Wire Line
	3400 6300 3400 6000
Wire Wire Line
	3400 5300 3400 5400
Wire Wire Line
	2700 5400 2700 5700
Text Notes 3000 5900 0    50   ~ 0
-1.1Np
Wire Wire Line
	3400 6300 3900 6300
Connection ~ 3400 6300
Wire Wire Line
	2700 6300 2250 6300
Connection ~ 2700 6300
$Comp
L power:GND #PWR03
U 1 1 5F8C909A
P 1350 3450
F 0 "#PWR03" H 1350 3200 50  0001 C CNN
F 1 "GND" H 1355 3277 50  0000 C CNN
F 2 "" H 1350 3450 50  0001 C CNN
F 3 "" H 1350 3450 50  0001 C CNN
	1    1350 3450
	1    0    0    -1  
$EndComp
Wire Wire Line
	1150 2750 4200 2750
Wire Wire Line
	1350 2550 1350 2250
Connection ~ 1350 2550
Wire Wire Line
	1150 2550 1350 2550
Wire Wire Line
	1350 2650 1350 2550
Wire Wire Line
	1150 2650 1350 2650
$Comp
L power:+24V #PWR01
U 1 1 5F8C86AB
P 1350 2250
F 0 "#PWR01" H 1350 2100 50  0001 C CNN
F 1 "+24V" H 1365 2423 50  0000 C CNN
F 2 "" H 1350 2250 50  0001 C CNN
F 3 "" H 1350 2250 50  0001 C CNN
	1    1350 2250
	1    0    0    -1  
$EndComp
$Comp
L Connector_Generic:Conn_01x08 J1
U 1 1 5F8C69C8
P 950 2850
F 0 "J1" H 868 3367 50  0000 C CNN
F 1 "Conn_01x08" H 868 3276 50  0000 C CNN
F 2 "Connector_PinHeader_2.54mm:PinHeader_1x08_P2.54mm_Horizontal" H 950 2850 50  0001 C CNN
F 3 "~" H 950 2850 50  0001 C CNN
	1    950  2850
	-1   0    0    -1  
$EndComp
$Comp
L Device:R R2
U 1 1 5FCECB77
P 3050 4400
F 0 "R2" V 2843 4400 50  0000 C CNN
F 1 "976" V 2934 4400 50  0000 C CNN
F 2 "Resistor_THT:R_Axial_DIN0207_L6.3mm_D2.5mm_P10.16mm_Horizontal" V 2980 4400 50  0001 C CNN
F 3 "~" H 3050 4400 50  0001 C CNN
	1    3050 4400
	0    1    1    0   
$EndComp
Wire Wire Line
	3200 4400 3400 4400
Connection ~ 3400 4400
Wire Wire Line
	3400 4400 3400 4500
Wire Wire Line
	2900 4400 2700 4400
Wire Wire Line
	1600 6100 1800 6100
Wire Wire Line
	1800 6100 1800 4900
Wire Wire Line
	1800 4900 2700 4900
Connection ~ 2700 4900
Wire Wire Line
	1700 4400 2700 4400
Wire Wire Line
	1700 4400 1700 6000
Connection ~ 2700 4400
Wire Wire Line
	1600 6300 2250 6300
Connection ~ 2250 6300
Wire Wire Line
	1600 6200 2000 6200
Wire Wire Line
	2000 6200 2000 5400
Wire Wire Line
	2000 5400 2250 5400
$Comp
L power:+24V #PWR06
U 1 1 5FC4070A
P 3400 5300
F 0 "#PWR06" H 3400 5150 50  0001 C CNN
F 1 "+24V" H 3415 5473 50  0000 C CNN
F 2 "" H 3400 5300 50  0001 C CNN
F 3 "" H 3400 5300 50  0001 C CNN
	1    3400 5300
	1    0    0    -1  
$EndComp
$Comp
L Device:R R9
U 1 1 5FD10F42
P 3050 6300
F 0 "R9" V 2843 6300 50  0000 C CNN
F 1 "402" V 2934 6300 50  0000 C CNN
F 2 "Resistor_THT:R_Axial_DIN0207_L6.3mm_D2.5mm_P10.16mm_Horizontal" V 2980 6300 50  0001 C CNN
F 3 "~" H 3050 6300 50  0001 C CNN
	1    3050 6300
	0    1    1    0   
$EndComp
$Comp
L Device:R R6
U 1 1 5FD114C2
P 3050 5400
F 0 "R6" V 2843 5400 50  0000 C CNN
F 1 "402" V 2934 5400 50  0000 C CNN
F 2 "Resistor_THT:R_Axial_DIN0207_L6.3mm_D2.5mm_P10.16mm_Horizontal" V 2980 5400 50  0001 C CNN
F 3 "~" H 3050 5400 50  0001 C CNN
	1    3050 5400
	0    1    1    0   
$EndComp
Wire Wire Line
	3200 5400 3400 5400
Connection ~ 3400 5400
Wire Wire Line
	3400 5400 3400 5700
Wire Wire Line
	2900 5400 2700 5400
Connection ~ 2250 5400
Connection ~ 2700 5400
Wire Wire Line
	2700 5400 2250 5400
Wire Wire Line
	3150 3050 3150 3550
Wire Wire Line
	1150 2850 1350 2850
Wire Wire Line
	1350 2850 1350 2650
Connection ~ 1350 2650
Wire Wire Line
	1150 3250 1350 3250
Wire Wire Line
	1350 3250 1350 3450
Wire Wire Line
	1150 2950 3350 2950
Wire Wire Line
	3350 2950 3350 3150
Wire Wire Line
	1150 3050 3150 3050
Wire Wire Line
	1150 3150 2950 3150
Wire Wire Line
	4100 6400 1600 6400
Wire Wire Line
	1600 6500 4000 6500
$Comp
L Mechanical:MountingHole H4
U 1 1 5FDD5191
P 6300 7650
F 0 "H4" H 6400 7696 50  0000 L CNN
F 1 "MountingHole" H 6400 7605 50  0000 L CNN
F 2 "MountingHole:MountingHole_3.2mm_M3_DIN965" H 6300 7650 50  0001 C CNN
F 3 "~" H 6300 7650 50  0001 C CNN
	1    6300 7650
	1    0    0    -1  
$EndComp
$Comp
L Mechanical:MountingHole H3
U 1 1 5FDD5A08
P 6300 7450
F 0 "H3" H 6400 7496 50  0000 L CNN
F 1 "MountingHole" H 6400 7405 50  0000 L CNN
F 2 "MountingHole:MountingHole_3.2mm_M3_DIN965" H 6300 7450 50  0001 C CNN
F 3 "~" H 6300 7450 50  0001 C CNN
	1    6300 7450
	1    0    0    -1  
$EndComp
$Comp
L Mechanical:MountingHole H2
U 1 1 5FDD5B86
P 6300 7250
F 0 "H2" H 6400 7296 50  0000 L CNN
F 1 "MountingHole" H 6400 7205 50  0000 L CNN
F 2 "MountingHole:MountingHole_3.2mm_M3_DIN965" H 6300 7250 50  0001 C CNN
F 3 "~" H 6300 7250 50  0001 C CNN
	1    6300 7250
	1    0    0    -1  
$EndComp
$Comp
L Mechanical:MountingHole H1
U 1 1 5FDD5CED
P 6300 7050
F 0 "H1" H 6400 7096 50  0000 L CNN
F 1 "MountingHole" H 6400 7005 50  0000 L CNN
F 2 "MountingHole:MountingHole_3.2mm_M3_DIN965" H 6300 7050 50  0001 C CNN
F 3 "~" H 6300 7050 50  0001 C CNN
	1    6300 7050
	1    0    0    -1  
$EndComp
Text Notes 2050 5350 0    50   ~ 0
1Np in
Text Notes 2050 4350 0    50   ~ 0
-2Np out
Text Notes 3400 5050 0    50   ~ 0
-0.1Np I/O
$EndSCHEMATC
