EESchema Schematic File Version 4
EELAYER 30 0
EELAYER END
$Descr A4 11693 8268
encoding utf-8
Sheet 2 3
Title ""
Date ""
Rev ""
Comp ""
Comment1 ""
Comment2 ""
Comment3 ""
Comment4 ""
$EndDescr
$Comp
L Amplifier_Operational:LM358 U?
U 1 1 5F9B18D9
P 6150 2000
AR Path="/5F9B18D9" Ref="U?"  Part="1" 
AR Path="/5F9A39A0/5F9B18D9" Ref="U1"  Part="1" 
F 0 "U1" H 6150 2367 50  0000 C CNN
F 1 "TLE2082" H 6150 2276 50  0000 C CNN
F 2 "Package_DIP:DIP-8_W7.62mm_Socket" H 6150 2000 50  0001 C CNN
F 3 "http://www.ti.com/lit/ds/symlink/lm2904-n.pdf" H 6150 2000 50  0001 C CNN
	1    6150 2000
	1    0    0    -1  
$EndComp
$Comp
L Amplifier_Operational:LM358 U?
U 2 1 5F9B18DF
P 5550 5400
AR Path="/5F9B18DF" Ref="U?"  Part="2" 
AR Path="/5F9A39A0/5F9B18DF" Ref="U1"  Part="2" 
F 0 "U1" H 5550 5767 50  0000 C CNN
F 1 "TLE2082" H 5550 5676 50  0000 C CNN
F 2 "Package_DIP:DIP-8_W7.62mm_Socket" H 5550 5400 50  0001 C CNN
F 3 "http://www.ti.com/lit/ds/symlink/lm2904-n.pdf" H 5550 5400 50  0001 C CNN
	2    5550 5400
	1    0    0    -1  
$EndComp
$Comp
L Amplifier_Operational:LM358 U?
U 3 1 5F9B4B08
P 2350 1650
AR Path="/5F9B4B08" Ref="U?"  Part="3" 
AR Path="/5F9A39A0/5F9B4B08" Ref="U1"  Part="3" 
F 0 "U1" H 2308 1696 50  0000 L CNN
F 1 "TLE2082" H 2308 1605 50  0000 L CNN
F 2 "Package_DIP:DIP-8_W7.62mm_Socket" H 2350 1650 50  0001 C CNN
F 3 "http://www.ti.com/lit/ds/symlink/lm2904-n.pdf" H 2350 1650 50  0001 C CNN
	3    2350 1650
	1    0    0    -1  
$EndComp
Text HLabel 3950 5300 0    50   Input ~ 0
mic_in
Text HLabel 7450 2000 2    50   Output ~ 0
spk_out
Text HLabel 6850 5400 2    50   Output ~ 0
mic_out
Text HLabel 3950 2100 0    50   Input ~ 0
spk_in
$Comp
L power:+24V #PWR010
U 1 1 5FAB6A8B
P 2250 1150
F 0 "#PWR010" H 2250 1000 50  0001 C CNN
F 1 "+24V" H 2265 1323 50  0000 C CNN
F 2 "" H 2250 1150 50  0001 C CNN
F 3 "" H 2250 1150 50  0001 C CNN
	1    2250 1150
	1    0    0    -1  
$EndComp
$Comp
L power:GND #PWR011
U 1 1 5FAB71ED
P 1750 2150
F 0 "#PWR011" H 1750 1900 50  0001 C CNN
F 1 "GND" H 1755 1977 50  0000 C CNN
F 2 "" H 1750 2150 50  0001 C CNN
F 3 "" H 1750 2150 50  0001 C CNN
	1    1750 2150
	1    0    0    -1  
$EndComp
Wire Wire Line
	2250 2150 2250 2050
Wire Wire Line
	5100 1200 5100 1400
Wire Wire Line
	5850 1900 5500 1900
Wire Wire Line
	5100 1900 5100 1700
$Comp
L Device:C C1
U 1 1 5FAC02D5
P 5500 1550
F 0 "C1" H 5615 1596 50  0000 L CNN
F 1 "1u" H 5615 1505 50  0000 L CNN
F 2 "Capacitor_THT:C_Rect_L7.2mm_W5.5mm_P5.00mm_FKS2_FKP2_MKS2_MKP2" H 5538 1400 50  0001 C CNN
F 3 "~" H 5500 1550 50  0001 C CNN
	1    5500 1550
	1    0    0    -1  
$EndComp
Wire Wire Line
	5500 1700 5500 1900
Connection ~ 5500 1900
Wire Wire Line
	5500 1900 5100 1900
Wire Wire Line
	5100 1200 5500 1200
Wire Wire Line
	5500 1200 5500 1400
$Comp
L power:+24V #PWR09
U 1 1 5FAC6B2E
P 5100 1100
F 0 "#PWR09" H 5100 950 50  0001 C CNN
F 1 "+24V" H 5115 1273 50  0000 C CNN
F 2 "" H 5100 1100 50  0001 C CNN
F 3 "" H 5100 1100 50  0001 C CNN
	1    5100 1100
	1    0    0    -1  
$EndComp
Wire Wire Line
	5100 1100 5100 1200
Connection ~ 5100 1200
Wire Wire Line
	5100 2250 5100 1900
Connection ~ 5100 1900
$Comp
L Device:R R10
U 1 1 5FAB9424
P 5100 1550
F 0 "R10" H 5170 1596 50  0000 L CNN
F 1 "27k" H 5170 1505 50  0000 L CNN
F 2 "Resistor_THT:R_Axial_DIN0207_L6.3mm_D2.5mm_P10.16mm_Horizontal" V 5030 1550 50  0001 C CNN
F 3 "~" H 5100 1550 50  0001 C CNN
	1    5100 1550
	1    0    0    -1  
$EndComp
$Comp
L Device:R R14
U 1 1 5FAC78D0
P 5100 2400
F 0 "R14" H 5170 2446 50  0000 L CNN
F 1 "82k" H 5170 2355 50  0000 L CNN
F 2 "Resistor_THT:R_Axial_DIN0207_L6.3mm_D2.5mm_P10.16mm_Horizontal" V 5030 2400 50  0001 C CNN
F 3 "~" H 5100 2400 50  0001 C CNN
	1    5100 2400
	1    0    0    -1  
$EndComp
Wire Wire Line
	5100 2550 5100 2650
$Comp
L Device:R R15
U 1 1 5FADA8F7
P 6350 2500
F 0 "R15" V 6143 2500 50  0000 C CNN
F 1 "100k" V 6234 2500 50  0000 C CNN
F 2 "Resistor_THT:R_Axial_DIN0207_L6.3mm_D2.5mm_P10.16mm_Horizontal" V 6280 2500 50  0001 C CNN
F 3 "~" H 6350 2500 50  0001 C CNN
	1    6350 2500
	0    1    1    0   
$EndComp
$Comp
L Device:R R13
U 1 1 5FAD49D1
P 5500 2100
F 0 "R13" V 5700 2100 50  0000 C CNN
F 1 "100k" V 5600 2100 50  0000 C CNN
F 2 "Resistor_THT:R_Axial_DIN0207_L6.3mm_D2.5mm_P10.16mm_Horizontal" V 5430 2100 50  0001 C CNN
F 3 "~" H 5500 2100 50  0001 C CNN
	1    5500 2100
	0    1    1    0   
$EndComp
Wire Wire Line
	5650 2100 5750 2100
Wire Wire Line
	6200 2500 5750 2500
Wire Wire Line
	5750 2500 5750 2100
Connection ~ 5750 2100
Wire Wire Line
	5750 2100 5850 2100
$Comp
L Device:R R12
U 1 1 5FAE8304
P 6700 2000
F 0 "R12" V 6493 2000 50  0000 C CNN
F 1 "1k" V 6584 2000 50  0000 C CNN
F 2 "Resistor_THT:R_Axial_DIN0207_L6.3mm_D2.5mm_P10.16mm_Horizontal" V 6630 2000 50  0001 C CNN
F 3 "~" H 6700 2000 50  0001 C CNN
	1    6700 2000
	0    1    1    0   
$EndComp
Text Notes 3950 1950 2    50   ~ 0
0.6Np (2Vpp) in
Text Notes 5850 1450 0    50   ~ 0
×1 differential amp
$Comp
L Device:CP C3
U 1 1 5FAF17AF
P 7200 2000
F 0 "C3" V 6945 2000 50  0000 C CNN
F 1 "33u" V 7036 2000 50  0000 C CNN
F 2 "Capacitor_THT:CP_Radial_D10.0mm_P5.00mm" H 7238 1850 50  0001 C CNN
F 3 "~" H 7200 2000 50  0001 C CNN
	1    7200 2000
	0    1    1    0   
$EndComp
Wire Wire Line
	7050 2000 6950 2000
Wire Wire Line
	7450 2000 7350 2000
Wire Wire Line
	6450 2000 6550 2000
Wire Wire Line
	6950 2000 6950 2500
Wire Wire Line
	6500 2500 6950 2500
Connection ~ 6950 2000
Wire Wire Line
	6950 2000 6850 2000
Wire Wire Line
	2250 1150 2250 1250
Wire Wire Line
	2250 1250 2750 1250
Wire Wire Line
	2750 1250 2750 1500
Connection ~ 2250 1250
Wire Wire Line
	2250 1250 2250 1350
Wire Wire Line
	2250 2050 2750 2050
Wire Wire Line
	2750 2050 2750 1800
Connection ~ 2250 2050
Wire Wire Line
	2250 2050 2250 1950
$Comp
L Device:R R?
U 1 1 5FB1F9BB
P 6600 5400
AR Path="/5FB1F9BB" Ref="R?"  Part="1" 
AR Path="/5F9A39A0/5FB1F9BB" Ref="R18"  Part="1" 
F 0 "R18" V 6807 5400 50  0000 C CNN
F 1 "604" V 6716 5400 50  0000 C CNN
F 2 "Resistor_THT:R_Axial_DIN0207_L6.3mm_D2.5mm_P10.16mm_Horizontal" V 6530 5400 50  0001 C CNN
F 3 "~" H 6600 5400 50  0001 C CNN
	1    6600 5400
	0    -1   -1   0   
$EndComp
Wire Wire Line
	6750 5400 6850 5400
Wire Wire Line
	5850 5400 5950 5400
$Comp
L Device:CP C5
U 1 1 5FB2C90A
P 6200 5400
F 0 "C5" V 5945 5400 50  0000 C CNN
F 1 "33u" V 6036 5400 50  0000 C CNN
F 2 "Capacitor_THT:CP_Radial_D10.0mm_P5.00mm" H 6238 5250 50  0001 C CNN
F 3 "~" H 6200 5400 50  0001 C CNN
	1    6200 5400
	0    1    1    0   
$EndComp
Wire Wire Line
	6350 5400 6450 5400
$Comp
L Device:D_Zener D?
U 1 1 5FB3F1DC
P 4350 4050
AR Path="/5FB3F1DC" Ref="D?"  Part="1" 
AR Path="/5F9A39A0/5FB3F1DC" Ref="D4"  Part="1" 
F 0 "D4" V 4304 4130 50  0000 L CNN
F 1 "5.1V" V 4395 4130 50  0000 L CNN
F 2 "Diode_THT:D_DO-35_SOD27_P7.62mm_Horizontal" H 4350 4050 50  0001 C CNN
F 3 "~" H 4350 4050 50  0001 C CNN
	1    4350 4050
	0    1    1    0   
$EndComp
$Comp
L power:+24V #PWR013
U 1 1 5FB41835
P 4350 3700
F 0 "#PWR013" H 4350 3550 50  0001 C CNN
F 1 "+24V" H 4365 3873 50  0000 C CNN
F 2 "" H 4350 3700 50  0001 C CNN
F 3 "" H 4350 3700 50  0001 C CNN
	1    4350 3700
	1    0    0    -1  
$EndComp
Wire Wire Line
	4350 3700 4350 3800
$Comp
L Device:R R16
U 1 1 5FB4407C
P 4350 4550
F 0 "R16" H 4420 4596 50  0000 L CNN
F 1 "10k" H 4420 4505 50  0000 L CNN
F 2 "Resistor_THT:R_Axial_DIN0207_L6.3mm_D2.5mm_P10.16mm_Horizontal" V 4280 4550 50  0001 C CNN
F 3 "~" H 4350 4550 50  0001 C CNN
	1    4350 4550
	1    0    0    -1  
$EndComp
Wire Wire Line
	4350 4700 4350 4800
Wire Wire Line
	4350 4200 4350 4300
$Comp
L Device:C C4
U 1 1 5FB499ED
P 4750 4050
F 0 "C4" H 4865 4096 50  0000 L CNN
F 1 "1u" H 4865 4005 50  0000 L CNN
F 2 "Capacitor_THT:C_Rect_L7.2mm_W5.5mm_P5.00mm_FKS2_FKP2_MKS2_MKP2" H 4788 3900 50  0001 C CNN
F 3 "~" H 4750 4050 50  0001 C CNN
	1    4750 4050
	1    0    0    -1  
$EndComp
Wire Wire Line
	4350 3800 4750 3800
Wire Wire Line
	4750 3800 4750 3900
Connection ~ 4350 3800
Wire Wire Line
	4350 3800 4350 3900
Wire Wire Line
	4350 4300 4750 4300
Wire Wire Line
	4750 4300 4750 4200
Connection ~ 4350 4300
Wire Wire Line
	4350 4300 4350 4400
$Comp
L Device:R R17
U 1 1 5FB5963E
P 4750 5050
F 0 "R17" H 4820 5096 50  0000 L CNN
F 1 "2.2k" H 4820 5005 50  0000 L CNN
F 2 "Resistor_THT:R_Axial_DIN0207_L6.3mm_D2.5mm_P10.16mm_Horizontal" V 4680 5050 50  0001 C CNN
F 3 "~" H 4750 5050 50  0001 C CNN
	1    4750 5050
	1    0    0    -1  
$EndComp
Wire Wire Line
	4750 4300 4750 4900
Connection ~ 4750 4300
Wire Wire Line
	3950 5300 4750 5300
Wire Wire Line
	4750 5300 4750 5200
$Comp
L Device:R R19
U 1 1 5FB77A24
P 5550 5900
F 0 "R19" V 5343 5900 50  0000 C CNN
F 1 "200k" V 5434 5900 50  0000 C CNN
F 2 "Resistor_THT:R_Axial_DIN0207_L6.3mm_D2.5mm_P10.16mm_Horizontal" V 5480 5900 50  0001 C CNN
F 3 "~" H 5550 5900 50  0001 C CNN
	1    5550 5900
	0    1    1    0   
$EndComp
Wire Wire Line
	5700 5900 5950 5900
Wire Wire Line
	5950 5900 5950 5400
Connection ~ 5950 5400
Wire Wire Line
	5950 5400 6050 5400
Wire Wire Line
	5250 5500 5150 5500
Wire Wire Line
	5150 5500 5150 5900
Wire Wire Line
	5150 5900 5400 5900
$Comp
L Device:C C6
U 1 1 5FB7B099
P 4400 5900
F 0 "C6" H 4515 5946 50  0000 L CNN
F 1 "1u" H 4515 5855 50  0000 L CNN
F 2 "Capacitor_THT:C_Rect_L7.2mm_W5.5mm_P5.00mm_FKS2_FKP2_MKS2_MKP2" H 4438 5750 50  0001 C CNN
F 3 "~" H 4400 5900 50  0001 C CNN
	1    4400 5900
	0    1    -1   0   
$EndComp
$Comp
L Device:R R20
U 1 1 5FB7D630
P 4850 5900
F 0 "R20" V 4643 5900 50  0000 C CNN
F 1 "10k" V 4734 5900 50  0000 C CNN
F 2 "Resistor_THT:R_Axial_DIN0207_L6.3mm_D2.5mm_P10.16mm_Horizontal" V 4780 5900 50  0001 C CNN
F 3 "~" H 4850 5900 50  0001 C CNN
	1    4850 5900
	0    -1   1    0   
$EndComp
Connection ~ 5150 5900
Wire Wire Line
	5250 5300 4750 5300
Connection ~ 4750 5300
$Comp
L power:+24V #PWR08
U 1 1 5FAB51BC
P 4250 1100
F 0 "#PWR08" H 4250 950 50  0001 C CNN
F 1 "+24V" H 4265 1273 50  0000 C CNN
F 2 "" H 4250 1100 50  0001 C CNN
F 3 "" H 4250 1100 50  0001 C CNN
	1    4250 1100
	1    0    0    -1  
$EndComp
Wire Wire Line
	3950 2100 4250 2100
Connection ~ 4250 2100
Wire Wire Line
	4250 2100 4250 1800
$Comp
L Device:R R?
U 1 1 5F9B18E5
P 4250 1650
AR Path="/5F9B18E5" Ref="R?"  Part="1" 
AR Path="/5F9A39A0/5F9B18E5" Ref="R11"  Part="1" 
F 0 "R11" H 4180 1604 50  0000 R CNN
F 1 "604" H 4180 1695 50  0000 R CNN
F 2 "Resistor_THT:R_Axial_DIN0207_L6.3mm_D2.5mm_P10.16mm_Horizontal" V 4180 1650 50  0001 C CNN
F 3 "~" H 4250 1650 50  0001 C CNN
	1    4250 1650
	-1   0    0    1   
$EndComp
Wire Wire Line
	4250 2100 5350 2100
Wire Wire Line
	4250 1100 4250 1500
$Comp
L Device:CP C2
U 1 1 5FDEBDDD
P 2750 1650
F 0 "C2" H 2868 1696 50  0000 L CNN
F 1 "33u" H 2868 1605 50  0000 L CNN
F 2 "Capacitor_THT:CP_Radial_D10.0mm_P5.00mm" H 2788 1500 50  0001 C CNN
F 3 "~" H 2750 1650 50  0001 C CNN
	1    2750 1650
	1    0    0    -1  
$EndComp
$Comp
L Device:R R?
U 1 1 5FDECF35
P 2000 2050
AR Path="/5FDECF35" Ref="R?"  Part="1" 
AR Path="/5F9A39A0/5FDECF35" Ref="R28"  Part="1" 
F 0 "R28" V 2207 2050 50  0000 C CNN
F 1 "270" V 2116 2050 50  0000 C CNN
F 2 "Resistor_THT:R_Axial_DIN0207_L6.3mm_D2.5mm_P10.16mm_Horizontal" V 1930 2050 50  0001 C CNN
F 3 "~" H 2000 2050 50  0001 C CNN
	1    2000 2050
	0    -1   -1   0   
$EndComp
Wire Wire Line
	1850 2050 1750 2050
Wire Wire Line
	1750 2050 1750 2150
$Comp
L power:GND2 #PWR0101
U 1 1 5FE07C33
P 2250 2150
F 0 "#PWR0101" H 2250 1900 50  0001 C CNN
F 1 "GND2" H 2255 1977 50  0000 C CNN
F 2 "" H 2250 2150 50  0001 C CNN
F 3 "" H 2250 2150 50  0001 C CNN
	1    2250 2150
	1    0    0    -1  
$EndComp
Wire Wire Line
	2150 2050 2250 2050
$Comp
L power:GND2 #PWR0102
U 1 1 5FE0CC3F
P 5100 2650
F 0 "#PWR0102" H 5100 2400 50  0001 C CNN
F 1 "GND2" H 5105 2477 50  0000 C CNN
F 2 "" H 5100 2650 50  0001 C CNN
F 3 "" H 5100 2650 50  0001 C CNN
	1    5100 2650
	1    0    0    -1  
$EndComp
$Comp
L power:GND2 #PWR0103
U 1 1 5FE0EE9F
P 4350 4800
F 0 "#PWR0103" H 4350 4550 50  0001 C CNN
F 1 "GND2" H 4355 4627 50  0000 C CNN
F 2 "" H 4350 4800 50  0001 C CNN
F 3 "" H 4350 4800 50  0001 C CNN
	1    4350 4800
	1    0    0    -1  
$EndComp
Text Notes 5800 4850 0    50   ~ 0
0.6Np (2Vpp) max out
$Comp
L power:+24V #PWR0104
U 1 1 5FACFE18
P 4150 5700
F 0 "#PWR0104" H 4150 5550 50  0001 C CNN
F 1 "+24V" H 4165 5873 50  0000 C CNN
F 2 "" H 4150 5700 50  0001 C CNN
F 3 "" H 4150 5700 50  0001 C CNN
	1    4150 5700
	1    0    0    -1  
$EndComp
Wire Wire Line
	4250 5900 4150 5900
Wire Wire Line
	4150 5900 4150 5700
Wire Wire Line
	4550 5900 4700 5900
Wire Wire Line
	5000 5900 5150 5900
$Comp
L power:-5V #PWR0105
U 1 1 5FADDCAA
P 5000 4400
F 0 "#PWR0105" H 5000 4500 50  0001 C CNN
F 1 "-5V" H 5015 4573 50  0000 C CNN
F 2 "" H 5000 4400 50  0001 C CNN
F 3 "" H 5000 4400 50  0001 C CNN
	1    5000 4400
	-1   0    0    1   
$EndComp
Wire Wire Line
	4750 4300 5000 4300
Wire Wire Line
	5000 4300 5000 4400
$EndSCHEMATC
