EESchema Schematic File Version 4
EELAYER 30 0
EELAYER END
$Descr A4 11693 8268
encoding utf-8
Sheet 3 3
Title ""
Date ""
Rev ""
Comp ""
Comment1 ""
Comment2 ""
Comment3 ""
Comment4 ""
$EndDescr
$Comp
L Relay:FINDER-30.22 K?
U 1 1 5F9CD1AE
P 7100 2950
AR Path="/5F9CD1AE" Ref="K?"  Part="1" 
AR Path="/5F9CB163/5F9CD1AE" Ref="K1"  Part="1" 
F 0 "K1" V 6333 2950 50  0000 C CNN
F 1 "FINDER-30.22" V 6424 2950 50  0000 C CNN
F 2 "Relay_THT:Relay_DPDT_Finder_30.22" H 8450 2920 50  0001 C CNN
F 3 "http://gfinder.findernet.com/assets/Series/354/S30EN.pdf" H 7100 2950 50  0001 C CNN
	1    7100 2950
	0    -1   1    0   
$EndComp
$Comp
L Comparator:LM311 U2
U 1 1 5FA321D3
P 5300 4250
F 0 "U2" H 5644 4296 50  0000 L CNN
F 1 "LM311" H 5644 4205 50  0000 L CNN
F 2 "Package_DIP:DIP-8_W7.62mm_Socket" H 5300 4250 50  0001 C CNN
F 3 "https://www.st.com/resource/en/datasheet/lm311.pdf" H 5300 4250 50  0001 C CNN
	1    5300 4250
	1    0    0    -1  
$EndComp
Wire Wire Line
	5200 2550 5200 3950
$Comp
L power:GND #PWR019
U 1 1 5FA3924D
P 5200 4850
F 0 "#PWR019" H 5200 4600 50  0001 C CNN
F 1 "GND" H 5205 4677 50  0000 C CNN
F 2 "" H 5200 4850 50  0001 C CNN
F 3 "" H 5200 4850 50  0001 C CNN
	1    5200 4850
	1    0    0    -1  
$EndComp
Wire Wire Line
	5200 4850 5200 4650
Wire Wire Line
	5300 4550 5300 4650
Wire Wire Line
	5300 4650 5200 4650
Connection ~ 5200 4650
Wire Wire Line
	5200 4650 5200 4550
Wire Wire Line
	6700 2550 6800 2550
Wire Wire Line
	7400 2550 7500 2550
Wire Wire Line
	7500 2550 7500 2950
Wire Wire Line
	7500 2950 7400 2950
Wire Wire Line
	6800 2850 6500 2850
Wire Wire Line
	6500 2850 6500 3750
Wire Wire Line
	6500 4250 6000 4250
$Comp
L Device:C C7
U 1 1 5FA47844
P 7100 1950
F 0 "C7" V 6848 1950 50  0000 C CNN
F 1 "1u" V 6939 1950 50  0000 C CNN
F 2 "Capacitor_THT:C_Rect_L7.2mm_W5.5mm_P5.00mm_FKS2_FKP2_MKS2_MKP2" H 7138 1800 50  0001 C CNN
F 3 "~" H 7100 1950 50  0001 C CNN
	1    7100 1950
	0    1    1    0   
$EndComp
Wire Wire Line
	6950 1950 6700 1950
Wire Wire Line
	6700 1950 6700 2550
Wire Wire Line
	7250 1950 7500 1950
Wire Wire Line
	7500 1950 7500 2550
Connection ~ 7500 2550
$Comp
L Device:R R26
U 1 1 5FA4AD6B
P 6500 3900
F 0 "R26" H 6570 3946 50  0000 L CNN
F 1 "270" H 6570 3855 50  0000 L CNN
F 2 "Resistor_THT:R_Axial_DIN0207_L6.3mm_D2.5mm_P10.16mm_Horizontal" V 6430 3900 50  0001 C CNN
F 3 "~" H 6500 3900 50  0001 C CNN
	1    6500 3900
	1    0    0    -1  
$EndComp
Wire Wire Line
	6500 4050 6500 4250
$Comp
L Device:R R22
U 1 1 5FA4DB68
P 6000 2800
F 0 "R22" H 6070 2846 50  0000 L CNN
F 1 "12k" H 6070 2755 50  0000 L CNN
F 2 "Resistor_THT:R_Axial_DIN0207_L6.3mm_D2.5mm_P10.16mm_Horizontal" V 5930 2800 50  0001 C CNN
F 3 "~" H 6000 2800 50  0001 C CNN
	1    6000 2800
	1    0    0    -1  
$EndComp
Wire Wire Line
	5200 2550 6000 2550
Wire Wire Line
	6000 2550 6000 2650
Connection ~ 5200 2550
Wire Wire Line
	6000 2950 6000 3050
Connection ~ 6000 4250
Wire Wire Line
	6000 4250 5600 4250
$Comp
L Device:R R23
U 1 1 5FA56FB9
P 5450 3050
F 0 "R23" V 5243 3050 50  0000 C CNN
F 1 "120k" V 5334 3050 50  0000 C CNN
F 2 "Resistor_THT:R_Axial_DIN0207_L6.3mm_D2.5mm_P10.16mm_Horizontal" V 5380 3050 50  0001 C CNN
F 3 "~" H 5450 3050 50  0001 C CNN
	1    5450 3050
	0    1    1    0   
$EndComp
Wire Wire Line
	5600 3050 6000 3050
Connection ~ 6000 3050
Wire Wire Line
	6000 3050 6000 3350
$Comp
L Device:CP C8
U 1 1 5FA64064
P 4700 2800
F 0 "C8" H 4818 2846 50  0000 L CNN
F 1 "33u" H 4818 2755 50  0000 L CNN
F 2 "Capacitor_THT:CP_Radial_D10.0mm_P5.00mm" H 4738 2650 50  0001 C CNN
F 3 "~" H 4700 2800 50  0001 C CNN
	1    4700 2800
	1    0    0    -1  
$EndComp
Wire Wire Line
	4200 4750 4200 4850
$Comp
L power:GND #PWR017
U 1 1 5FA38BD7
P 4200 4850
F 0 "#PWR017" H 4200 4600 50  0001 C CNN
F 1 "GND" H 4205 4677 50  0000 C CNN
F 2 "" H 4200 4850 50  0001 C CNN
F 3 "" H 4200 4850 50  0001 C CNN
	1    4200 4850
	1    0    0    -1  
$EndComp
Connection ~ 4200 2550
Wire Wire Line
	4200 2550 4700 2550
Wire Wire Line
	4200 2550 4200 2650
Wire Wire Line
	3900 2550 4200 2550
$Comp
L Device:R R21
U 1 1 5FA36AEC
P 4200 2800
F 0 "R21" H 4270 2846 50  0000 L CNN
F 1 "120k" H 4270 2755 50  0000 L CNN
F 2 "Resistor_THT:R_Axial_DIN0207_L6.3mm_D2.5mm_P10.16mm_Horizontal" V 4130 2800 50  0001 C CNN
F 3 "~" H 4200 2800 50  0001 C CNN
	1    4200 2800
	1    0    0    -1  
$EndComp
$Comp
L Device:R R27
U 1 1 5FA33733
P 4200 4600
F 0 "R27" H 4270 4646 50  0000 L CNN
F 1 "120k" H 4270 4555 50  0000 L CNN
F 2 "Resistor_THT:R_Axial_DIN0207_L6.3mm_D2.5mm_P10.16mm_Horizontal" V 4130 4600 50  0001 C CNN
F 3 "~" H 4200 4600 50  0001 C CNN
	1    4200 4600
	1    0    0    -1  
$EndComp
Text HLabel 3900 2550 0    50   Input ~ 0
bell_in
$Comp
L power:GND #PWR018
U 1 1 5FA6E0BD
P 4700 4850
F 0 "#PWR018" H 4700 4600 50  0001 C CNN
F 1 "GND" H 4705 4677 50  0000 C CNN
F 2 "" H 4700 4850 50  0001 C CNN
F 3 "" H 4700 4850 50  0001 C CNN
	1    4700 4850
	1    0    0    -1  
$EndComp
Wire Wire Line
	4700 4850 4700 4750
$Comp
L Device:R R24
U 1 1 5FA71F21
P 5450 3350
F 0 "R24" V 5243 3350 50  0000 C CNN
F 1 "120k" V 5334 3350 50  0000 C CNN
F 2 "Resistor_THT:R_Axial_DIN0207_L6.3mm_D2.5mm_P10.16mm_Horizontal" V 5380 3350 50  0001 C CNN
F 3 "~" H 5450 3350 50  0001 C CNN
	1    5450 3350
	0    1    1    0   
$EndComp
Wire Wire Line
	5600 3350 6000 3350
Connection ~ 6000 3350
Wire Wire Line
	6000 3350 6000 3650
Wire Wire Line
	5300 3350 4700 3350
Wire Wire Line
	4700 3350 4700 3650
Wire Wire Line
	4200 3050 5300 3050
Connection ~ 4200 3050
Wire Wire Line
	4200 3050 4200 2950
$Comp
L Device:D D5
U 1 1 5FA8062F
P 4700 4600
F 0 "D5" V 4654 4680 50  0000 L CNN
F 1 "1N4148" V 4745 4680 50  0000 L CNN
F 2 "Diode_THT:D_DO-35_SOD27_P7.62mm_Horizontal" H 4700 4600 50  0001 C CNN
F 3 "~" H 4700 4600 50  0001 C CNN
	1    4700 4600
	0    1    1    0   
$EndComp
Wire Wire Line
	4700 2950 4700 3350
Connection ~ 4700 3350
Wire Wire Line
	4700 2650 4700 2550
Connection ~ 4700 2550
Wire Wire Line
	4700 2550 5200 2550
$Comp
L Device:D D6
U 1 1 5FA873F1
P 5750 3650
F 0 "D6" H 5750 3867 50  0000 C CNN
F 1 "1N4148" H 5750 3776 50  0000 C CNN
F 2 "Diode_THT:D_DO-35_SOD27_P7.62mm_Horizontal" H 5750 3650 50  0001 C CNN
F 3 "~" H 5750 3650 50  0001 C CNN
	1    5750 3650
	-1   0    0    -1  
$EndComp
$Comp
L Device:R R25
U 1 1 5FA87D0F
P 4950 3650
F 0 "R25" V 4743 3650 50  0000 C CNN
F 1 "120k" V 4834 3650 50  0000 C CNN
F 2 "Resistor_THT:R_Axial_DIN0207_L6.3mm_D2.5mm_P10.16mm_Horizontal" V 4880 3650 50  0001 C CNN
F 3 "~" H 4950 3650 50  0001 C CNN
	1    4950 3650
	0    1    1    0   
$EndComp
Wire Wire Line
	4800 3650 4700 3650
Connection ~ 4700 3650
Wire Wire Line
	5100 3650 5600 3650
Wire Wire Line
	5900 3650 6000 3650
Connection ~ 6000 3650
Wire Wire Line
	6000 3650 6000 4250
Connection ~ 6000 2550
Wire Wire Line
	6000 2550 6700 2550
Connection ~ 6700 2550
Wire Wire Line
	4200 3050 4200 4150
Wire Wire Line
	4700 3650 4700 4350
Wire Wire Line
	5000 4350 4700 4350
Connection ~ 4700 4350
Wire Wire Line
	4700 4350 4700 4450
Wire Wire Line
	5000 4150 4200 4150
Connection ~ 4200 4150
Wire Wire Line
	4200 4150 4200 4450
$EndSCHEMATC
