0
SECTION
2
HEADER
9
$INSUNITS
70
4
9
$ACADVER
1
AC1014
9
$HANDSEED
5
FFFF
0
ENDSEC
0
SECTION
2
TABLES
0
TABLE
2
VPORT
5
8
100
AcDbSymbolTable
0
ENDTAB
0
TABLE
2
LTYPE
5
5
100
AcDbSymbolTable
0
LTYPE
5
14
100
AcDbSymbolTableRecord
100
AcDbLinetypeTableRecord
2
BYBLOCK
70
0
0
LTYPE
5
15
100
AcDbSymbolTableRecord
100
AcDbLinetypeTableRecord
2
BYLAYER
70
0
0
ENDTAB
0
TABLE
2
LAYER
5
2
100
AcDbSymbolTable
70
2
0
LAYER
5
50
100
AcDbSymbolTableRecord
100
AcDbLayerTableRecord
2
0
70
0
6
CONTINUOUS
0
ENDTAB
0
TABLE
2
STYLE
5
3
100
AcDbSymbolTable
70
1
0
STYLE
5
11
100
AcDbSymbolTableRecord
100
AcDbTextStyleTableRecord
2
STANDARD
70
0
0
ENDTAB
0
TABLE
2
VIEW
5
6
100
AcDbSymbolTable
70
0
0
ENDTAB
0
TABLE
2
UCS
5
7
100
AcDbSymbolTable
70
0
0
ENDTAB
0
TABLE
2
APPID
5
9
100
AcDbSymbolTable
70
2
0
APPID
5
12
100
AcDbSymbolTableRecord
100
AcDbRegAppTableRecord
2
ACAD
70
0
0
ENDTAB
0
TABLE
2
DIMSTYLE
5
A
100
AcDbSymbolTable
70
1
0
ENDTAB
0
TABLE
2
BLOCK_RECORD
5
1
100
AcDbSymbolTable
70
1
0
BLOCK_RECORD
5
1F
100
AcDbSymbolTableRecord
100
AcDbBlockTableRecord
2
*MODEL_SPACE
0
BLOCK_RECORD
5
1B
100
AcDbSymbolTableRecord
100
AcDbBlockTableRecord
2
*PAPER_SPACE
0
ENDTAB
0
ENDSEC
0
SECTION
2
BLOCKS
0
BLOCK
5
20
100
AcDbEntity
100
AcDbBlockBegin
2
*MODEL_SPACE
0
ENDBLK
5
21
100
AcDbEntity
100
AcDbBlockEnd
0
BLOCK
5
1C
100
AcDbEntity
100
AcDbBlockBegin
2
*PAPER_SPACE
0
ENDBLK
5
1D
100
AcDbEntity
100
AcDbBlockEnd
0
ENDSEC
0
SECTION
2
ENTITIES
0
CIRCLE
5
100
100
AcDbEntity
8
0
100
AcDbCircle
10
9
20
-18.000000000000004
30
0
40
1.5999999999999992
210
0
220
0
230
1
0
CIRCLE
5
101
100
AcDbEntity
8
0
100
AcDbCircle
10
9
20
17.999999999999996
30
0
40
1.6000000000000003
210
0
220
0
230
1
0
CIRCLE
5
102
100
AcDbEntity
8
0
100
AcDbCircle
10
-9
20
-18.000000000000004
30
0
40
1.6000000000000014
210
0
220
0
230
1
0
LWPOLYLINE
5
103
100
AcDbEntity
8
0
100
AcDbPolyline
90
8
70
1
43
0.0
10
8.9999999999999982
20
11.699999999999996
42
-0.41421356237309503
10
10.999999999999996
20
9.6999999999999957
10
10.999999999999996
20
-5.3000000000000096
42
-0.41421356237309492
10
8.9999999999999982
20
-7.3000000000000087
10
-9
20
-7.3000000000000096
42
-0.41421356237309537
10
-11.000000000000004
20
-5.3000000000000069
10
-11.000000000000005
20
9.6999999999999922
42
-0.41421356237309459
10
-9.0000000000000036
20
11.699999999999992
0
CIRCLE
5
104
100
AcDbEntity
8
0
100
AcDbCircle
10
-9
20
17.999999999999996
30
0
40
1.6000000000000014
210
0
220
0
230
1
0
LWPOLYLINE
5
105
100
AcDbEntity
8
0
100
AcDbPolyline
90
16
70
1
43
0.0
10
-4.2071067811865541
20
19.300000000000001
10
4.2071067811865399
20
19.300000000000001
10
6.2071067811865541
20
21.300000000000018
10
11.200000000000006
20
21.299999999999997
42
-0.41421356237308915
10
12.199999999999999
20
20.300000000000004
10
12.199999999999999
20
-20.300000000000004
42
-0.41421356237309503
10
11.199999999999999
20
-21.300000000000004
10
6.2071067811865612
20
-21.300000000000018
10
4.207106781186547
20
-19.300000000000004
10
-4.207106781186547
20
-19.300000000000004
10
-6.2071067811865515
20
-21.300000000000018
10
-11.199999999999994
20
-21.299999999999997
42
-0.41421356237309176
10
-12.199999999999998
20
-20.300000000000008
10
-12.200000000000005
20
20.299999999999994
42
-0.41421356237309048
10
-11.200000000000001
20
21.299999999999997
10
-6.2071067811865603
20
21.300000000000018
0
ENDSEC
0
SECTION
2
OBJECTS
0
DICTIONARY
5
C
100
AcDbDictionary
3
ACAD_GROUP
350
D
3
ACAD_MLINESTYLE
350
17
0
DICTIONARY
5
D
100
AcDbDictionary
0
DICTIONARY
5
1A
330
C
100
AcDbDictionary
0
DICTIONARY
5
17
100
AcDbDictionary
0
ENDSEC
0
EOF
