M48
; DRILL file {KiCad 5.1.8+dfsg1-1} date Sun Jan  3 19:12:25 2021
; FORMAT={-:-/ absolute / inch / decimal}
; #@! TF.CreationDate,2021-01-03T19:12:25+01:00
; #@! TF.GenerationSoftware,Kicad,Pcbnew,5.1.8+dfsg1-1
FMAT,2
INCH
T1C0.0299
T2C0.0315
T3C0.0354
T4C0.0394
T5C0.0906
T6C0.1260
T7C0.1280
%
G90
G05
T1
X5.075Y-4.175
X5.125Y-4.075
X5.1752Y-4.175
X5.225Y-4.075
T2
X4.5Y-3.925
X4.8Y-3.925
X4.9Y-3.2
X4.9Y-3.6
X3.95Y-4.05
X4.35Y-4.05
X3.35Y-4.3
X3.75Y-4.3
X4.45Y-4.05
X4.85Y-4.05
X6.625Y-4.3
X6.925Y-4.3
X6.125Y-4.425
X6.525Y-4.425
X4.535Y-3.15
X4.535Y-3.45
X4.135Y-3.6
X4.535Y-3.6
X4.65Y-3.2
X4.65Y-3.6
X6.55Y-4.175
X6.95Y-4.175
X5.025Y-3.2
X5.025Y-3.6
X3.35Y-4.05
X3.75Y-4.05
X6.125Y-4.55
X6.525Y-4.55
X3.35Y-3.925
X3.75Y-3.925
X6.8781Y-3.7
X7.075Y-3.7
X5.925Y-3.6
X6.325Y-3.6
X6.55Y-3.475
X6.95Y-3.475
X5.275Y-3.725
X5.575Y-3.725
X6.125Y-4.3
X6.525Y-4.3
X4.2Y-3.15
X4.2Y-3.3469
X5.6Y-3.975
X6.0Y-3.975
X5.925Y-3.725
X6.325Y-3.725
X3.35Y-4.175
X3.75Y-4.175
X3.3Y-3.15
X3.3Y-3.45
X3.5Y-3.15
X3.5Y-3.45
X3.7Y-3.15
X3.7Y-3.45
X4.0Y-3.15
X4.0Y-3.45
X4.775Y-3.2
X4.775Y-3.6
X6.6281Y-4.486
X6.825Y-4.486
X5.575Y-3.095
X5.575Y-3.495
X5.175Y-3.6
X5.575Y-3.6
X3.35Y-4.55
X3.75Y-4.55
X6.125Y-3.875
X6.125Y-3.975
X6.125Y-4.075
X6.125Y-4.175
X6.425Y-3.875
X6.425Y-3.975
X6.425Y-4.075
X6.425Y-4.175
X6.55Y-3.7
X6.7469Y-3.7
X4.0Y-3.925
X4.3Y-3.925
X5.475Y-3.975
X5.475Y-4.375
X3.35Y-4.425
X3.75Y-4.425
X5.15Y-3.175
X5.15Y-3.275
X5.15Y-3.375
X5.15Y-3.475
X5.45Y-3.175
X5.45Y-3.275
X5.45Y-3.375
X5.45Y-3.475
X5.7Y-3.45
X5.7Y-3.85
X5.925Y-3.475
X6.325Y-3.475
X6.55Y-3.925
X6.95Y-3.925
X6.55Y-4.05
X6.95Y-4.05
T3
X4.0634Y-4.4094
X4.1035Y-4.3094
X4.1437Y-4.4094
X4.1839Y-4.3094
X4.224Y-4.4094
X4.2642Y-4.3094
T4
X5.75Y-3.2079
X5.9469Y-3.2079
X6.6031Y-3.2079
X6.8Y-3.2079
X4.4025Y-3.3675
X4.4025Y-3.4675
X3.35Y-3.75
X3.45Y-3.75
X3.55Y-3.75
X3.65Y-3.75
X3.75Y-3.75
X3.85Y-3.75
X3.95Y-3.75
X4.05Y-3.75
X4.15Y-3.75
X4.25Y-3.75
X4.35Y-3.75
X4.45Y-3.75
X4.55Y-3.75
X4.65Y-3.75
X4.75Y-3.75
X4.85Y-3.75
X5.7031Y-4.3
X5.9Y-4.3
X6.175Y-3.2079
X6.3719Y-3.2079
X5.025Y-3.75
X5.125Y-3.75
X5.275Y-3.85
X5.375Y-3.85
X3.15Y-3.45
X3.15Y-3.55
X3.15Y-3.65
X3.15Y-3.75
X3.15Y-3.85
X3.15Y-3.95
X3.15Y-4.05
X3.15Y-4.15
T5
X3.9276Y-4.5
X4.4Y-4.5
T6
X2.925Y-3.175
X7.05Y-3.175
X7.05Y-4.5
X2.925Y-4.5
T7
X5.0Y-4.425
X5.3Y-4.425
T0
M30
